Meta Analysis
…
Task 1

Import the data from the data\metaanalysis_data.xlsx file. The data come from the meta-analysis study: Todd et al., 2017 - Sex differences in children’s toy preferences: A systematic review, meta‐regression, and meta‐analysis

The study looks at various studies of children choosing what kind of toys they play with (stereotypically ‘boy-toys’ or stereotypically ‘girl-toys’). Mean times (in seconds) of playing are recorded, along with sample sizes and standard errors (for boys playing with each kind of toys and for girls playing with each kind of toys).

There’s also information about the studies (e.g. year) and a bit about quality.

```{r}
data <- readxl::read_xlsx('/Users/zehrausta/Desktop/metaanalysis_data.xlsx')
data
```

# A tibble: 27 × 28
   Study           `Female authors` `Male authors` `Age (months)` N_boys N_girls
   <chr>                      <dbl>          <dbl>          <dbl>  <dbl>   <dbl>
 1 Alexander & Sa…                2              0           19.5     47      47
 2 Arthur (2014)                  1              0           19       22      18
 3 Berenbaum & Hi…                2              0           65.8     18      18
 4 Berenbaum & Sn…                2              0           93.1     19      19
 5 Doering et al …                1              3           87       15      15
 6 Idle et al. (1…                2              1           46       10      10
 7 Lamminmäki & H…                5              1           14       21      21
 8 Li & Wong (201…                2              0           77       38      38
 9 Pasterski et a…                3              3           81       12      12
10 Pasterski et a…                3              3           81       25      25
# ℹ 17 more rows
# ℹ 22 more variables: Mean_boys_play_male <dbl>, SD_boys_play_male <dbl>,
#   Mean_girls_play_male <dbl>, SD_girls_play_male <dbl>,
#   Mean_boys_play_female <dbl>, SD_boys_play_female <dbl>,
#   Mean_girls_play_female <dbl>, SD_girls_play_female <dbl>,
#   `Neutral toys` <dbl>, Year <dbl>, `Parent present` <dbl>, Setting <dbl>,
#   Country <dbl>, `Case definition adequate` <chr>, …
…
